ID,URL,Page Title,# of Races on Site,Parser
72,http://www.usaranationals.com/home.aspx,USARA Adventure Race National Championship,25,yes
77,http://www.northamericanar.com/#!races/galleryPage,naars15,15,no
8,http://www.thehappymutant.com/,"Happy Mutant Website | Affordable, Accessible Adventure Racing",6,yes
78,http://axsracing.com/#,AXS Racing – Adventure Xstream Adventure Racing,5,yes
16,http://goalsara.org/,"GOALS Adventure Racing Association: adventure racing, mountain biking, orienteering, trail running, navigation, survival skills training, clinics and races - Home",5,yes
35,http://www.oarevents.com/index.shtml,,5,yes
67,http://miadventurerace.com/,Michigan Adventure Race | Run. Bike. Paddle. Search. Conquer.,4,yes
115,http://worldteamsports.org/events/,Events | World T.E.A.M. Sports,4,yes
21,http://www.180adventure.com/,180 Adventure,4,yes
170,http://www.krankevents.com/,Krank Events Home,4,yes
1,http://www.krankevents.com/adventure-races,Adventure Races Home,4,yes
5,http://www.bendracing.com/,"Bend Racing | RUGGED ADVENTURE AND SCENIC, EPIC RACES",3,yes
15,http://www.gmara.org/,GMARA,3,yes
181,http://www.ncars.info/,NCARS | North Carolina Adventure Race Series,3,yes
58,http://adventureracing.net/,Mid-America Xtreme Adventure Racing,2,yes
82,http://all-outevents.com/events/,California Events - All Out Events,2,
45,http://ehfcapital.com/www.ncars.info/index.html,NCARS | North Carolina Adventure Race Series,2,yes
36,http://nyara.org/,NYARA - New York Adventure Racing Association,2,blockers
17,http://www.offroadadventureracing.com,Off Road Rage Adventure Race,2,yes
27,http://www.offroadadventureracing.com/,Off Road Rage Adventure Race,2,yes
62,http://www.offthegridracing.com/,Off The Grid Racing,2,blockers
68,http://www.topoadventuresports.org/,Topo Adventure Sports,2,blockers
24,http://361adventures.com/breakdown,361 Adventures » The Breakdown,1,yes
7,http://361adventures.com/frigid,361 Adventures » FRIGID,1,yes
80,http://361adventures.com/gears,361 Adventures » Gears N’ Gorge,1,yes
74,http://361adventures.com/unbridled,361 Adventures » Unbridled,1,yes
81,http://alloutadventureseries.com/dawn-to-dusk-adventure-race/,10th Annual Dawn to Dusk Adventure Race : California,1,
88,http://bendracing.com/smith-rock-spring-sting-april-26th,,1,yes
89,http://bendracing.com/solstice-multisport-challenge-june-20,,1,yes
6,http://callevarace.com/,Calleva Race,1,
91,http://ehfcapital.com/www.ncars.info/races/2015-pisgah.html,NCARS | North Carolina Adventure Race Series,1,
92,http://expeditionidahoadventurerace.com/,,1,
93,http://flxadventures.com/howl-at-the-moon-2015/,Howl at the Moon AR (2015) - Florida Xtreme Adventures,1,
94,http://flxadventures.com/lighterknot-ar-2015/,Lighter Knot AR (2015) - Florida Xtreme Adventures,1,
34,http://flxadventures.com/the-blue-ridge-adventure-race-2016/,The Blue Ridge Adventure Race (2016) - Florida Xtreme Adventures,1,
95,http://flxadventures.com/the-earth-day-ar-2016/,The Earth Day Adventure Race (2016) - Florida Xtreme Adventures,1,
14,http://flxadventures.com/the-florida-sea-to-sea-2015/,The Florida Sea to Sea AR (2015) - Florida Xtreme Adventures,1,
96,http://flxadventures.com/the-florida-sea-to-sea-2016/,The Florida Sea to Sea AR (2016) - Florida Xtreme Adventures,1,
9,http://flxadventures.com/the-resolution-adventure-race-2016/,The Resolution Adventure Race (2016) - Florida Xtreme Adventures,1,
97,http://groundupadventures.com/far,Family Adventure Races | Ground UP Adventures,1,
50,http://hellbenderadventurerace.itsyourrace.com/event.aspx?id=5427,"Hellbender Adventure Race in Rolla, MO - Details, Registration, and Results | ITS YOUR RACE",1,
98,http://medicuswrx.com/events/,Events  |  Medicus WRX,1,
99,http://mhmassacre.ca/General.htm,,1,
100,http://miadventurerace.com/artprize-edition/race-information/,Race Information | Michigan Adventure Race,1,
38,http://miadventurerace.com/epic-edition/race-information/,Race Information | Michigan Adventure Race,1,
12,http://miadventurerace.com/winter-edition/race-information/,Race Information | Michigan Adventure Race,1,
101,http://mindovermountain.com/,,1,
20,http://mississippivalleybsa.org/Activities%20and%20Events/AdventureRace,Physically Strong Adventure Race,1,
41,http://nyara.org/2013/02/25/jerseyinferno/,The Jersey Inferno - NYARA,1,
102,http://offthegridadventurerace.com/race-information/race-details,,1,
103,http://offthegridracing.com/cauldron,Off The Grid Racing,1,
18,http://olou.org/schedule.html,OLOU Meet Schedule,1,
104,http://pangeaadventureracing.com/event-details/events/2014-turkey-burn-ar,Turkey Burn AR - Pangea Adventure Racing Florida,1,
25,http://rootstockracing.org/index.php/2016-races/schuylkill-valley-family-adventure-race/,Schuylkill Valley Family Adventure Race – Rootstock Racing,1,
51,http://rootstockracing.org/index.php/2016-races/the-sylvan-adventure-race/,The Sylvan Adventure Race – Rootstock Racing,1,
76,http://rootstockracing.org/index.php/2016-races/two-rivers-adventure-race/,,1,
105,http://sbbracing.com/?page_id=1412,"Summer Solstice AR Details, Schedule & Directions | Soggy Bottom Boys Racing",1,
106,http://soarhighlands.org/,SOAR | Special Operations Adventure Race - Join the Adventure. Support the Cause.,1,
47,http://strongmachine.weebly.com/maine-summer-8-hour-adventure-race.html,,1,
42,http://teamdragonaz.wix.com/plot-pedal-paddle,Plot Pedal Paddle Adventure Race,1,
107,http://texasadventureracing.com/TAR%20texasquest.html,Texas Adventure Racing - Texas Quest Adventure Race,1,
108,http://thehogback.com/overview/,Overview | The Hogback,1,
109,http://toocoolracing.com/big-chill/,Big Chill Adventure Race 2016 - Too Cool Racing,1,
110,http://toocoolracing.com/guts-glory-15/,"Guts & Glory Adventure Race July 9, 2016 - Too Cool Racing",1,
111,http://toocoolracing.com/howl-2015/,Howl 2015 - Too Cool Racing,1,
112,http://toocoolracing.com/wild-wendigo-2015/,Wild Wendigo Adventure Race 2016 - Too Cool Racing,1,
113,http://wildernesstraverse.com/event-details,Wilderness Traverse,1,
31,http://wildknoxville.com/,Home,1,
114,http://wisadventureracingsociety.com/skmcfall2014raceinfo.html,"Adventure, SKMC Fall 2014  Race Info",1,
116,http://www.180adventure.com/2014-smar-general-information/,2014 SMAR General Information | 180 Adventure,1,
117,http://www.active.com/columbus-ga/adventure-racing/races/chattahoochee-challenge-adventure-race-2014,"Chattahoochee Challenge Adventure Race - Columbus, GA 2014 | ACTIVE",1,
118,http://www.active.com/nebo-nc/adventure-racing/races/north-carolina-medwar-2014-2015,"North Carolina MedWAR 2014 - Nebo, NC 2014 | ACTIVE",1,
119,http://www.active.com/salina-ks/cycling/mountain-biking-races/off-road-rage-adventure-race-2015,"Off Road Rage Adventure Race - Salina, KS 2015 | ACTIVE",1,
120,http://www.adventureaddictsracing.com/brake-the-habit-adventure-race/,"Brake the Habit Adventure Race – March 15, 2014 - Adventure Addicts Racing",1,
121,http://www.adventureaddictsracing.com/events/adrenaline-rush/,Adrenaline Rush AR - Adventure Addicts Racing,1,
122,http://www.adventureaddictsracing.com/events/buff-betty/,Buff Betty Adventure Race - Adventure Addicts Racing,1,
123,http://www.adventureaddictsracing.com/the-chill-adventure-race/,The Chill Winter Adventure Race 2015 - Adventure Addicts Racing,1,
124,http://www.adventureracekansas.com/BreakUp2014-info.html,Adventure Race Kansas Home,1,
125,http://www.adventureracekansas.com/Sunflower15.html,Sunflower State Games Adventure Race,1,
75,http://www.alpineshop.com/index.cfm,,1,
73,http://www.americanadventuresports.com/#!blackbeard-ar/tmaod,amerad,1,
30,http://www.americanadventuresports.com/#!equinox-traverse-ar/i6l3j,amerad,1,
126,http://www.americanadventuresports.com/#!lionheart-ar/xojcc,amerad,1,
26,http://www.americanadventuresports.com/#!yellow-creek-xtreme-ar/c1bky,amerad,1,
127,http://www.americanadventuresports.com/events/4.25.15-yellow-creek-xtreme-pg68.htm,amerad,1,
128,http://www.americanadventuresports.com/events/7.10.15-equinox-traverse-adventure-race-pg61.htm,amerad,1,
129,http://www.bendracing.com/2016-bend-ar-september-10-11,,1,
130,http://www.bendracing.com/2016-smith-rock-spring-sting-april-24,,1,
131,http://www.bendracing.com/2016-solstice-multisport-challenge-june-18-19,,1,
132,http://www.bigmountainar.com/USA2014.php,,1,
133,http://www.blueridgeadventurerace.com/,"Blue Ridge Adventure Race – Prudence is a rich, ugly, old maid courted by incapacity.",1,
134,http://www.bonkhardracing.com/berryman-adventure/,Bonk Hard Racing - Berryman Adventure,1,
135,http://www.bonkhardracing.com/chill/,Bonk Hard Racing - Chill,1,
136,http://www.bonkhardracing.com/smithville-8-hr/,Bonk Hard Racing - Smithville 8-Hr,1,
56,http://www.calleva.org/content/adventure-race-2015,Adventure Race 2015  | Calleva Outdoor Adventures,1,
70,http://www.coosariverchallenge.com/,Coosa River Challenge Adventure Race,1,
53,http://www.cowboytoughwy.com/,Cameco Cowboy Tough,1,
64,http://www.deepcreekadventureracing.com/,Deep Creek Adventure Racing,1,
137,http://www.deepcreekadventureracing.com/#!big-bear-50/kt0vf,Deep Creek Adventure Racing,1,
138,http://www.deepcreekadventureracing.com/#!black-bear-adventure-race/c1k8g,Deep Creek Adventure Racing,1,
139,http://www.delawaresports.org/events/delmarva-12-hour-adventure-race,Events | Delaware Sports Commission,1,
61,http://www.delmarvaadventuresports.com/chesapeake.html,2015 Chesapeake Headwaters 12-hour AR - Delmarva Adventure Sports,1,
140,http://www.dinoseries.com/mission,Dinoseries - MISSION 18 Hour Race,1,
33,http://www.dinoseries.com/mission-18-hour-race/,Dinoseries - MISSION 18 Hour Race,1,
141,http://www.dinoseries.com/mission-4-hour-lite-race/,Dinoseries - MISSION 4 Hour Lite Race,1,
37,http://www.dominionriverrock.com/event/adventure-race/,Adventure Race | Dominion Riverrock: The Nation’s premier outdoor Sports & Music Festival,1,
142,http://www.eastgrandschool.org/adventure-race,Adventure-Race - MSAD#14,1,
143,http://www.elkbonesadventureracing.com/the-race.html,Elkbones Adventure Racing,1,
144,http://www.endracing.com/end-ar,Extreme North Dakota Adventure Race (END-AR) | Extreme North Dakota Racing,1,
145,http://www.endracing.com/end-spar,Extreme North Dakota Spring Primer Adventure Race (END-SPAR) | Extreme North Dakota Racing,1,
146,http://www.esar.ca/,ESAR | The Emergency Services Adventure Race | Home,1,
147,http://www.ex2adventures.com/rocky-gap-ar.php,EX2 Adventures,1,
63,http://www.facebook.com/NoSleepAR,,1,
148,http://www.flyingsquirreladventures.com/Sheltowee_Extreme.html,,1,
49,http://www.flyingsquirreladventures.com/Sheltowee_Extreme.php,,1,
149,http://www.gmara.org/bitter/index.shtml,,1,
150,http://www.gmara.org/frigid/index.shtml,,1,
55,http://www.gmara.org/races/bitter/,The Bitter Pill | GMARA,1,
151,http://www.gmara.org/races/frigid/,Frigid Infliction | GMARA,1,
152,http://www.goalsara.org/2015-races/the-meltdown/,,1,
153,http://www.goalsara.org/races/cradle-of-liberty-100-mile-ar/,,1,
154,http://www.goalsara.org/races/krista-griesacker-memorial-ar/,,1,
155,http://www.goalsara.org/races/the-edge-adventure-races/,,1,
156,http://www.goalsara.org/races/the-savage-adventure-races/,,1,
157,http://www.goldrushar.com/,Gold Rush Adventure Racing - Home,1,
44,http://www.goldrushar.com/community/viewevent.html?eventid=52,Community,1,
159,http://www.goldrushar.com/events/gold-rush-summer-challenge-adventure-race.html,Gold Rush Adventure Racing - Summer Challenge Adventure Race 2016,1,
158,http://www.goldrushar.com/events/goldrush24houradventurechallenge2014.html,Gold Rush Adventure Racing - Gold Rush 30 Hour Adventure Challenge 2015,1,
66,http://www.goldrushar.com/events/goldrush24houradventurechallenge2016.html,Gold Rush Adventure Racing - Gold Rush 30 Hour Adventure Challenge 2016,1,
160,http://www.graffitiracing.com/Home_Page.html,,1,
161,http://www.grradventureraces.com/mad.html,,1,
162,http://www.grradventureraces.com/nar.html,,1,
163,http://www.gunghoadventurerace.com/,Gung Ho Adventure Race | Home,1,
164,http://www.infiterrasports.com/events/2015/fury/,"2015 Fury Event Information | Infiterra Sports, LLC",1,
165,http://www.infiterrasports.com/events/2015/get-bearings/,"2015 Get Bearings Event Information | Infiterra Sports, LLC",1,
166,http://www.infiterrasports.com/events/2015/lucky-21/,"2015 Lucky 21 Event Information | Infiterra Sports, LLC",1,
19,http://www.kandoadventures.com/,kandoadventures1,1,
167,http://www.kandoadventures.com/#!swamp-fox/c1ldw,kandoadventures1,1,
168,http://www.kandoadventures.com/#!ultimate-carolina-adventure-race/c204t,kandoadventures1,1,
169,http://www.kinzuacountrytango.com/#!the_race/component_74511,Kinzua Tango,1,
171,http://www.logsrocksandsteel.com/racedetails.php,logs rocks & steel | Race Details,1,
60,http://www.losttribeexpeditions.com/#!search--rescue-challenge/c188f,The Lost Tribe,1,
13,http://www.mayamountainadventurechallenge.com/,mmac16,1,
172,http://www.mbmsporting.com/adventure-racing/maff_2015/,MAFF 2015 – MBM Sporting Events,1,
173,http://www.medwar.org/maine/,MedWAR Maine,1,
174,http://www.medwar.org/midatlantic/details.htm,Mid-Atlantic MedWAR,1,
175,http://www.medwar.org/southeast/details.htm,Southeast MedWAR,1,
176,http://www.medwar.org/tennessee/details.htm,MedWAR Tennessee,1,
177,http://www.medwar.org/utah/,MedWAR Utah,1,
4,http://www.mindovermountain.com/momar/,Mind Over Mountain Adventure Racing,1,
178,http://www.mnoc.org/news/2014/ar/,Minnesota Orienteering Club,1,
29,http://www.mnoc.org/schedule.shtml,Minnesota Orienteering Club,1,
57,http://www.myjourneyracing.com/never-summer-ar.html,Never Summer AR - Journey Racing,1,
179,http://www.myjourneyracing.com/the-nomad-home-page.html,The NOMAD Home Page - Journey Racing,1,
43,http://www.myjourneyracing.com/the-nomad.html,,1,
180,http://www.naturalselectionar.com/,Natural Selection Adventure Racing | More than mud!,1,
28,http://www.navigationtips.com/races/stoked/index.html,,1,
182,http://www.northamericanar.com/#!championship/c6gz,naars15,1,
11,http://www.nsfadventures.com/new/events,,1,
183,http://www.oarevents.com/events/2014/One_Day_Xtreme_AR.shtml,,1,
184,http://www.oarevents.com/events/2015/Odyssey_Wild_Wonderful_24HR_2015.shtml,,1,
79,http://www.oarevents.com/events/adventure_racing.shtml,,1,
185,http://www.offroadadventureracing.com/break-up-adventure-race,Off Road Rage Adventure Race - Break Up Adventure Race,1,
186,http://www.offroadadventureracing.com/off-road-rage-adventure-race-2,Off Road Rage Adventure Race - Off Road Rage Adventure Race,1,
187,http://www.offthegridracing.com/#!the-cauldron-2016/c1ma1,Off The Grid Racing,1,
188,http://www.oklahomaadventureracing.com/great-plains-take-off-9-26-2015/,CANCELLED — Oklahoma Adventure Racing,1,
189,http://www.oklahomaadventureracing.com/robbers-cave2/,Robbers Cave Breakout 03-07-2015 — Oklahoma Adventure Racing,1,
190,http://www.orienteering.mb.ca/adventure-o/what-to-expect,What to Expect | Spruce Woods Adventure-O,1,
191,http://www.pangorge.com/about/the-race/,The Race,1,
192,http://www.pisgahproductions.com/events/pmbar/about/,,1,
10,http://www.purdueoutingclub.org/pocar/2016,Purdue Outing Club - Register for 2016,1,
194,http://www.race-coar.com/coar_002.htm,Events,1,
193,http://www.race360.com/triathlon/races/detail.asp?eventid=21887,"Pine Mountain Adventure Race in Pine Mountain, Georgia - event results and details",1,
195,http://www.racethephantom.com/,Race the Phantom – 24 Hour Adventure Race,1,
196,http://www.racethephantom.com/2011/?page_id=1514,,1,
197,http://www.racetherockstar.com/index.php/race-info,RockstAR | Adventure Racing | Canada's rocking-est adventure race | Race Info,1,
198,http://www.raidinternationalgaspesie.com/index.php/en/,"Raid international Gaspésie – September 8 to 11, 2016",1,
199,http://www.raidinternationalgaspesie.com/index.php/en/the-raids/gaspesie-international-raid,Gaspesie international raid – Raid international Gaspésie,1,
200,http://www.raidpulse.com/homeEn/pevents/event-2.php,RAID PULSE | Raid Aventure | Adventure Race Series,1,
201,http://www.raidpulse.com/homeEn/pevents/event-3.php,RAID PULSE | Raid Aventure | Adventure Race Series,1,
202,http://www.raidpulse.com/homeEn/pevents/event-4.php,RAID PULSE | Raid Aventure | Adventure Race Series,1,
203,http://www.raidtherock.com/race-information/raid-the-rock-long-course-race-information/,Raid the Rock – Long Course Race Information | 2015 Raid the Rock,1,
204,http://www.recreationnorthwest.org/quest-adventure-races/,Quest Adventure Races - Recreation Northwest -Multi-Sport Relay Races,1,
3,http://www.recreationnorthwest.org/quest-adventure-races/kulshan-quest/,Kulshan Quest AR - Recreation Northwest -Multi-Sport Relay Races,1,
2,http://www.recreationnorthwest.org/quest-adventure-races/san-juan-island-quest/,Island Quest AR - Recreation Northwest -Multi-Sport Relay Races,1,
205,http://www.rev3adventure.com/#!bartrams-wildwood-sprint/c20zx,Rev3 Adventure,1,
206,http://www.rev3adventure.com/#!bartrams-wildwood-strong/c8mm,Rev3 Adventure,1,
52,http://www.rev3adventure.com/#!casper-strong/c165l,Rev3 Adventure,1,
207,http://www.rev3adventure.com/#!cct/c1y0h,Rev3 Adventure,1,
208,http://www.rev3adventure.com/#!curt-gowdy-tenderfoot/c1wge,Rev3 Adventure,1,
209,http://www.rev3adventure.com/#!shenandoah-aquablaze/ckdj,Rev3 Adventure,1,
210,http://www.rev3adventure.com/#!shenandoah-strong/ck9,Rev3 Adventure,1,
211,http://www.rev3adventure.com/#!shenandoah-tenderfoot/c9vc,Rev3 Adventure,1,
23,http://www.rev3adventure.com/#!shenandoahepic/c1vdo,Rev3 Adventure,1,
212,http://www.rev3adventure.com/race/casper-strong-full-day-adventure-race/,Rev3 Adventure,1,
213,http://www.rev3adventure.com/race/cowboy-tough-sprint-adventure-race/,Rev3 Adventure,1,
214,http://www.rev3adventure.com/race/frozen-foot-challenge/,Rev3 Adventure,1,
215,http://www.rev3adventure.com/race/rev3cowboytough/,Rev3 Adventure,1,
217,http://www.rev3adventure.com/race/shenandoah-epic-adventure-race/,Rev3 Adventure,1,
216,http://www.rev3adventure.com/race/shenandoahaquablaze/,Rev3 Adventure,1,
218,http://www.rev3adventure.com/race/shenandoahstrong/,Rev3 Adventure,1,
219,http://www.rev3adventure.com/race/wildwood-epic-adventure-race/,Rev3 Adventure,1,
39,http://www.ribmountainadventurechallenge.com/Race/Home.html,Home,1,
220,http://www.ribmountainadventurechallenge.com/Race/Race_Information.html,Race Information,1,
221,http://www.sga2015.com/adventure-race,Adventure Race | State Games of America,1,
222,http://www.sprintadventureracing.com/register.html,,1,
223,http://www.stormthetrent.com/,Storm the Trent | Adventure Racing | Canada's largest adventure race event | Index,1,
224,http://www.stormthetrent.com/racedetails.htm,Storm the Trent | Adventure Racing | Canada's largest adventure race event | Race Details,1,
225,http://www.swampdonkeyar.com/swamp-donkey-registration,Swamp Donkey Adventure Race - Home — Swamp Donkey Adventure Racing,1,
226,http://www.teamfatotter.com/event/fat-otter-fall-sprint-adventure-race,,1,
227,http://www.terrafirmaracing.com/events/,Upcoming Races - Terra Firma Racing - Texas' Original Adventure Race Company,1,
48,http://www.tetonogrear.com/,"Teton Ogre Adventure Race • A multi-sport adventure race in beautiful Teton Valley, Idaho!",1,
228,http://www.tetonogrear.com/race-details/,Race Details • Teton Ogre Adventure Race,1,
229,http://www.thehappymutant.com/calendar.php,,1,
54,http://www.thehogback.com/,The Hogback | 24 hour Adventure Race – Late Summer 2017,1,
59,http://www.thethunderrolls.org/,Thunder Rolls Main Page,1,
230,http://www.thethunderrolls.org/camp.html,Thunder Rolls Main Page,1,
22,http://www.thethunderrolls.org/lightningstrikes.html,High Profile Adventure Racing Presents - The Thunder Rolls,1,
231,http://www.topoadventuresports.org/efc.html,Topo Adventure Sports,1,
71,http://www.unpluggedadventures.net/,Unplugged Adventures - Outdoor Adventures in Central Iowa,1,
232,http://www.unpluggedadventures.net/9to5/9to5.php,Unplugged Adventures - Outdoor Adventures in Central Iowa,1,
233,http://www.unpluggedadventures.net/olmitz/olmitz.php,Unplugged Adventures - Outdoor Adventures in Central Iowa,1,
234,http://www.untamedne.com/,Untamed New England Adventure Race,1,
235,http://www.usaranationals.com/,USARA Adventure Race National Championship,1,
69,http://www.wildernesstraverse.com/,Wilderness Traverse,1,
236,https://alpineshop.webconnex.com/cw8hr2015,,1,
237,https://m.facebook.com/mungadaiadventurechallenge?id=522601471141961&refsrc=https%3A%2F%2Fwww.facebook.com%2Fmungadaiadventurechallenge,,1,
238,https://runsignup.com/Race/IN/NewHarmony/TomahawkChallengeAdventureRace,,1,
239,https://sites.google.com/site/bwadventureo/race-info,,1,
240,https://www.facebook.com/events/666073340185996/,,1,
32,https://www.facebook.com/Get-Your-Bearings-Adventure-Racing-298125810223443,,1,
40,https://www.facebook.com/GoomnaAdventureRace/,,1,
241,https://www.facebook.com/GoomnaAdventureRace/info/?tab=page_info,,1,
242,https://www.raceregister.net/event?action=view&id=249,,1,
243,https://www.raceregister.net/event?action=view&id=260,,1,
244,https://www.raceregister.net/event?action=view&id=268,,1,
65,https://www.raceregister.net/home,,1,
245,https://www.raceregister.net/RaceRegister/event?action=view&id=160,,1,
246,https://www.raceregister.net/RaceRegister/event?action=view&id=165,,1,
247,https://www.raceregister.net/RaceRegister/event?action=view&id=193,,1,
248,https://www.raceregister.net/RaceRegister/event?action=view&id=208,,1,
249,https://www.raceregister.net/RaceRegister/event?action=view&id=210,,1,
250,https://www.raceregister.net/RaceRegister/event?action=view&id=215,,1,
90,http://bendracing.com/welcome,"Bend Racing | RUGGED ADVENTURE AND SCENIC, EPIC RACES",0,
46,,,,19
251,,,,230
252,,,,
253,,,,
254,,,,
255,,,,
256,,,,
257,,,,
258,,,,
259,,,,
260,,,,
261,,,,
262,,,,
263,,,,
264,,,,
265,,,,
266,,,,
267,,,,
268,,,,
269,,,,
270,,,,
271,,,,
272,,,,
273,,,,
274,,,,
275,,,,
276,,,,
277,,,,
278,,,,
279,,,,
280,,,,
281,,,,
282,,,,
283,,,,
284,,,,
285,,,,
286,,,,
287,,,,
288,,,,
289,,,,
290,,,,
291,,,,
292,,,,
293,,,,
294,,,,
295,,,,
296,,,,
297,,,,
